type,w,x,y,z
q,0.88366884,-0.01116968,-0.46666268,-0.03507812
a,0.83288467,0.8034668,0.17327881,0.13458252
q,0.88346475,-0.009414704,-0.46722725,-0.033165623
a,0.89715797,0.84887695,0.25952148,0.13018799
q,0.8832672,-0.008139287,-0.4677796,-0.03090422
a,0.8649798,0.8010254,0.3031006,0.121154785
q,0.88298887,-0.007217971,-0.4684899,-0.02821096
a,0.8522372,0.81481934,0.21362305,0.12939453
q,0.8828456,-0.0057183565,-0.46893445,-0.025525007
a,0.83538175,0.81140137,0.17858887,0.0871582
q,0.88289887,-0.003924508,-0.4689965,-0.022727132
a,0.8769597,0.8461914,0.2033081,0.10809326
q,0.8835395,-0.002128071,-0.46793956,-0.019646334
a,0.9787481,0.94158936,0.23260498,0.13134766
q,0.8844574,-0.00041581687,-0.4663282,-0.016521165
a,0.890436,0.8530884,0.21807861,0.13250732
q,0.8849902,0.0008788707,-0.46542126,-0.013211159
a,0.8477903,0.80596924,0.22491455,0.1362915
q,0.88518244,0.0017551008,-0.4651418,-0.009593138
a,0.86020267,0.82714844,0.19812012,0.12854004
q,0.88539886,0.002505905,-0.4647899,-0.005746295
a,0.8807561,0.8470459,0.19946289,0.13586426
q,0.88560045,0.0034390592,-0.46443152,-0.0018457257
a,0.87285167,0.84552,0.18365479,0.11505127
q,0.8857569,0.0043020924,-0.46412626,0.0017292658
a,0.91316295,0.8880005,0.17675781,0.118652344
q,0.88599014,0.0049574026,-0.46364996,0.005058087
a,0.9030636,0.87872314,0.16418457,0.1281128
q,0.8859103,0.005390532,-0.46375486,0.008079233
a,0.88277507,0.86572266,0.14855957,0.088012695
q,0.8857452,0.005302139,-0.46401635,0.010777546
a,0.9054026,0.8845215,0.16766357,0.09625244
q,0.885465,0.004755419,-0.46450236,0.012908282
a,0.8996382,0.8754883,0.17193604,0.115356445
q,0.8852646,0.0038866187,-0.46483526,0.014823921
a,0.9436945,0.92633057,0.14013672,0.11328125
q,0.88471967,0.0034548917,-0.46582627,0.0162805
a,0.9377809,0.9244995,0.116882324,0.10522461
q,0.88402385,0.0032961075,-0.4670995,0.017581906
a,0.968645,0.95196533,0.14837646,0.100097656
q,0.88334113,0.0035040956,-0.46835828,0.01834836
a,0.9390091,0.9224243,0.15332031,0.08581543
q,0.88291734,0.003586153,-0.469135,0.018880472
a,0.9958481,0.98205566,0.13964844,0.0881958
q,0.88313866,0.0036163637,-0.46870434,0.019216714
a,1.0201863,0.9996948,0.16070557,0.12475586
q,0.8834498,0.003574824,-0.46810564,0.01951149
a,0.99172986,0.96954346,0.18011475,0.10522461
q,0.8838893,0.0048334566,-0.46726736,0.019425783
a,0.9841267,0.96118164,0.15673828,0.1416626
q,0.883609,0.006778428,-0.4677752,0.01937842
a,0.9641131,0.9335327,0.15222168,0.18670654
q,0.8831887,0.009072382,-0.46850714,0.01990887
a,1.0781868,1.0404053,0.20220947,0.19787598
q,0.8830841,0.0109403,-0.46862411,0.020835878
a,1.0397785,0.9840088,0.26605225,0.20513916
q,0.8820139,0.010958972,-0.4706602,0.020252459
a,1.0977052,1.0697021,0.19451904,0.15118408
q,0.8822291,0.011101366,-0.4702992,0.019160261
a,1.2706926,1.243103,0.2562256,0.06085205
q,0.8829561,0.011190601,-0.4690151,0.016975706
a,1.1272858,1.0943604,0.24456787,0.115478516
q,0.88494605,0.011594235,-0.46529612,0.015345101
a,1.0372434,0.99664307,0.17510986,0.22784424
q,0.8860652,0.011475291,-0.46319124,0.014510964
a,0.81222063,0.7593994,0.24176025,0.15673828
q,0.8867621,0.010944934,-0.46188584,0.013949447
a,1.0509838,1.0055542,0.2892456,0.09881592
q,0.8874239,0.011108018,-0.46064085,0.012864842
a,1.1103389,1.0700684,0.2897339,0.06213379
q,0.8875553,0.011165478,-0.46041343,0.011849035
a,1.0527875,1.0040894,0.2970581,0.109191895
q,0.88782036,0.011144751,-0.4599149,0.011361985
a,1.0251287,0.96881104,0.29229736,0.1638794
q,0.888373,0.0115279965,-0.45884714,0.010945043
a,0.9749008,0.9169922,0.28826904,0.16265869
q,0.8883376,0.01207829,-0.4589044,0.010820378
a,0.9699855,0.9112549,0.2845459,0.17181396
q,0.8878242,0.012545707,-0.45988962,0.010598484
a,1.0573771,0.99786377,0.2942505,0.18902588
q,0.8877531,0.012516169,-0.46003103,0.010448349
a,1.1301157,1.0739136,0.28729248,0.2033081
q,0.8876797,0.012482343,-0.4601881,0.009785745
a,1.058027,1.0041504,0.26885986,0.19702148
q,0.88751733,0.012363926,-0.46052033,0.009009838
a,1.0285317,0.9766846,0.27105713,0.17462158
q,0.88709766,0.012151708,-0.46135277,0.007989631
a,0.9971891,0.95648193,0.23529053,0.15545654
q,0.8868629,0.011531653,-0.4618385,0.0068057654
a,1.0418493,0.9985962,0.21960449,0.20007324
q,0.8863085,0.011035729,-0.46293348,0.0053037973
a,1.0551445,1.0128784,0.23095703,0.18457031
q,0.88522214,0.010177303,-0.46504515,0.003344241
a,1.0118306,0.9727173,0.24908447,0.124816895
q,0.8846134,0.009062446,-0.4662362,0.0009374343
a,1.0305359,0.994751,0.2479248,0.10491943
q,0.8840308,0.007954511,-0.46735603,-0.0021333206
a,0.980243,0.9477539,0.2397461,0.07183838
q,0.8830696,0.006535498,-0.46916258,-0.0056509473
a,0.9875164,0.9534912,0.23815918,0.09655762
q,0.88185996,0.0049685123,-0.47138822,-0.0095683765
a,1.0077995,0.9771118,0.22631836,0.09844971
q,0.87979585,0.002884802,-0.47514302,-0.013779453
a,1.0005292,0.97766113,0.20892334,0.039855957
q,0.8781023,0.0008185129,-0.47811577,-0.018468693
a,1.0218884,0.9977417,0.22039795,0.0138549805
q,0.87691665,-0.0013779231,-0.48006397,-0.023535756
a,1.0561843,1.0304565,0.22869873,0.03717041
q,0.8751003,-0.0034578133,-0.48304966,-0.029164275
a,0.9638977,0.93133545,0.24633789,0.032104492
q,0.87290627,-0.0058348933,-0.48656794,-0.035386432
a,1.036365,0.99450684,0.28967285,0.03314209
q,0.8706671,-0.008779736,-0.4900036,-0.041929882
a,1.0863192,1.0561523,0.25054932,0.04309082
q,0.868701,-0.011423382,-0.49280798,-0.048665926
a,1.0444142,1.0036011,0.28863525,0.016601562
q,0.8664092,-0.014348907,-0.49603796,-0.05545831
a,0.99128145,0.94415283,0.29785156,-0.049987793
q,0.8639505,-0.016862482,-0.49937773,-0.06266627
a,1.0128284,0.9512329,0.34277344,-0.059020996
q,0.860985,-0.020035813,-0.50341743,-0.06981672
a,0.99113536,0.91918945,0.37072754,0.0010986328
q,0.8581246,-0.023084043,-0.50714123,-0.0767924
a,0.9959922,0.92407227,0.3710327,-0.020629883
q,0.85459274,-0.026544722,-0.5118146,-0.08373993
a,0.9724058,0.8890991,0.3779297,-0.11065674
q,0.85093707,-0.02981619,-0.5165302,-0.090629265
a,0.97903824,0.8774414,0.4295044,-0.064331055
q,0.8470292,-0.03367306,-0.52149534,-0.0972124
a,1.0302646,0.9121094,0.47888184,-0.013183594
q,0.84302074,-0.037767,-0.5264785,-0.103489056
a,0.94484043,0.815979,0.47406006,-0.046569824
q,0.8384126,-0.042306684,-0.53225124,-0.10946756
a,0.9677765,0.8557739,0.44989014,-0.042907715
q,0.8339832,-0.046327755,-0.5376551,-0.11512067
a,0.9954436,0.85375977,0.5108032,0.03289795
q,0.8293049,-0.050851334,-0.5432841,-0.12045692
a,0.92234963,0.75354004,0.53186035,-0.005554199
q,0.82459515,-0.05522997,-0.54883647,-0.12558277
a,0.9498032,0.7906494,0.52630615,0.001159668
q,0.82019633,-0.059475582,-0.5538192,-0.13047953
a,0.96771735,0.8099365,0.5291748,-0.02130127
q,0.8156138,-0.06321152,-0.55903834,-0.13510917
a,0.9688403,0.7874756,0.56427,0.0115356445
q,0.81084174,-0.067332394,-0.56443197,-0.13935038
a,0.9196618,0.6932373,0.6034546,0.032287598
q,0.8058264,-0.07154327,-0.57008207,-0.14328898
a,1.0184478,0.82055664,0.59783936,0.08068848
q,0.80109614,-0.0756518,-0.5752508,-0.14699744
a,1.0140479,0.81414795,0.6040039,-0.02520752
q,0.7965725,-0.079307705,-0.58012784,-0.15044634
a,0.91272396,0.69104004,0.5958252,-0.022827148
q,0.791734,-0.08304995,-0.5853686,-0.15363508
a,0.99949324,0.78240967,0.6213379,0.02758789
q,0.7872583,-0.086804755,-0.5900524,-0.15661214
a,1.0821888,0.8701782,0.64331055,-0.008605957
q,0.7826173,-0.09036352,-0.5949417,-0.15933934
a,1.0173713,0.80615234,0.619812,-0.031555176
q,0.7781052,-0.09357704,-0.599682,-0.16179313
a,0.94159,0.6768799,0.6538696,-0.029663086
