type,w,x,y,z
q,0.99999464,0.0021497742,0.0019370964,-0.0015340522
a,1.0599798,0.5527954,-0.4744873,0.7699585
q,0.99999577,0.002374665,-0.0010358891,-0.0013224942
a,1.0590407,0.51000977,-0.5189209,0.76953125
q,0.9999742,0.003251349,-0.006343159,-0.0009027187
a,1.0840847,0.54473877,-0.5566406,0.75408936
q,0.99991184,0.004795432,-0.012352645,-0.0008538154
a,1.1464213,0.65045166,-0.55548096,0.76330566
q,0.9998176,0.0069328966,-0.017741604,-0.0013752078
a,1.2960993,0.77716064,-0.60253906,0.8442993
q,0.9996704,0.010292685,-0.02342838,-0.002074012
a,1.2875268,0.7303467,-0.6291504,0.8535156
q,0.9993848,0.015251087,-0.031330075,-0.0039513265
a,1.2543242,0.7657471,-0.5593262,0.8210449
q,0.99899423,0.020930767,-0.039073057,-0.006767824
a,1.2997234,0.8630371,-0.48846436,0.8401489
q,0.99841243,0.027991243,-0.04764278,-0.010921806
a,1.3165964,0.89282227,-0.46466064,0.8487549
q,0.9976526,0.03594651,-0.05604354,-0.016007919
a,1.3374912,0.97039795,-0.4121704,0.82299805
q,0.9967245,0.04436955,-0.064119734,-0.021453736
a,1.3230281,0.9837036,-0.34191895,0.815979
q,0.9955399,0.053408116,-0.072537206,-0.028039766
a,1.2685984,0.9538574,-0.27288818,0.7905884
q,0.9941347,0.06299438,-0.08020111,-0.035994325
a,1.3654869,1.0916138,-0.24456787,0.78302
q,0.99265134,0.07314087,-0.08578781,-0.043978237
a,1.4158115,1.1720581,-0.20471191,0.767395
q,0.99105793,0.08349966,-0.08975417,-0.052688718
a,1.3226978,1.1066284,-0.12646484,0.7133789
q,0.98914635,0.093810715,-0.09419718,-0.062576674
a,1.3096474,1.1173096,-0.0569458,0.68084717
q,0.9871006,0.10333107,-0.09853811,-0.07242493
a,1.2225548,1.0493774,0.017333984,0.62701416
q,0.9850767,0.111819856,-0.10160662,-0.082438946
a,1.2056291,1.059082,0.12219238,0.5629883
q,0.98313874,0.11924865,-0.103601284,-0.09211251
a,1.1094989,0.9666748,0.1786499,0.5144043
q,0.9811458,0.12599729,-0.10535949,-0.10186732
a,1.0515976,0.9258423,0.18969727,0.46118164
q,0.9791641,0.13229524,-0.10655836,-0.111268796
a,1.0734988,0.9578247,0.16461182,0.45593262
q,0.9772388,0.1383883,-0.10715024,-0.11988272
a,1.0647606,0.9481201,0.18579102,0.44750977
q,0.975569,0.14375262,-0.10666296,-0.12737058
a,1.010093,0.8881836,0.23016357,0.42242432
q,0.9740844,0.14820778,-0.10611805,-0.13391444
a,0.9015893,0.8007202,0.25836182,0.3239746
q,0.9727145,0.15147753,-0.107000135,-0.1393987
a,0.7721832,0.6744995,0.29473877,0.2333374
q,0.9714761,0.153715,-0.10884289,-0.14408079
a,0.7533964,0.65093994,0.30700684,0.22277832
q,0.97065616,0.15587173,-0.10888632,-0.14722247
a,0.8537737,0.76123047,0.2680664,0.27856445
q,0.97034997,0.15825108,-0.10608248,-0.14874166
a,0.87130296,0.7574463,0.2567749,0.34570312
q,0.97038776,0.16022103,-0.10246148,-0.14892411
a,0.8399023,0.72875977,0.2397461,0.3418579
q,0.97056985,0.16146427,-0.09978708,-0.14820905
a,0.7698262,0.6743164,0.23968506,0.2836914
