type,w,x,y,z
q,0.99999505,0.0010799404,-0.0029138932,-0.00048563888
a,1.045323,0.46575928,-0.47558594,0.80596924
q,0.9999934,0.0010793944,-0.0034306692,-0.00038499382
a,1.0466758,0.4642334,-0.46783447,0.81311035
q,0.9999917,0.0010145429,-0.0039581945,-0.0001727238
a,1.0554489,0.47338867,-0.47070312,0.8175049
q,0.99998975,0.0007955656,-0.0044589723,-4.6261313e-05
a,1.0616952,0.48272705,-0.4790039,0.8153076
q,0.99998623,0.0005395047,-0.0052207042,3.188931e-05
a,1.0612197,0.4906006,-0.48101807,0.80877686
q,0.9999811,-1.4413853e-05,-0.006147516,2.8497238e-05
a,1.0761055,0.51623535,-0.45721436,0.82611084
q,0.9999634,-0.0004990462,-0.008544383,2.5551939e-05
a,1.1160388,0.4605713,-0.4706421,0.901062
q,0.999916,-0.00014739609,-0.012954423,3.0756364e-05
a,1.169651,0.42199707,-0.52819824,0.9544678
q,0.99980664,0.0013836988,-0.019616835,-0.00012954067
a,1.1823838,0.4862671,-0.54956055,0.927124
q,0.99959207,0.0042077326,-0.02823701,-0.0007732561
a,1.2945664,0.63757324,-0.56030273,0.977478
q,0.99930626,0.007921614,-0.03628551,-0.0027321428
a,1.3837285,0.75128174,-0.5597534,1.0183105
q,0.9988396,0.013223366,-0.046022914,-0.0051418957
a,1.3387609,0.67059326,-0.56970215,1.0089722
q,0.9980336,0.020249847,-0.05874021,-0.008272255
a,1.2674555,0.6467285,-0.4831543,0.9771118
q,0.99686533,0.02825848,-0.07268528,-0.013341017
a,1.3243976,0.8041382,-0.40386963,0.9717407
q,0.99535507,0.03695618,-0.08680685,-0.019161258
a,1.384064,0.93847656,-0.38165283,0.94299316
q,0.99354875,0.046168856,-0.100276865,-0.025960734
a,1.3609084,0.99279785,-0.31799316,0.8748169
q,0.991648,0.055847976,-0.111173026,-0.033995595
a,1.3667464,1.0726929,-0.27368164,0.8015137
q,0.9898433,0.06601867,-0.1184518,-0.04267202
a,1.4035063,1.1329956,-0.24249268,0.7920532
q,0.9878312,0.07646989,-0.12518467,-0.05167842
a,1.2874788,1.0338135,-0.18585205,0.74450684
q,0.9854076,0.086827815,-0.13291204,-0.06137737
a,1.124804,0.9222412,-0.10900879,0.63464355
q,0.9828452,0.09646707,-0.13980395,-0.07186391
a,1.132022,0.97979736,-0.017578125,0.5667114
q,0.98028815,0.105583124,-0.14534186,-0.08223835
a,1.1143408,0.9898071,0.05230713,0.5092163
q,0.97778076,0.11385412,-0.14991751,-0.0922313
a,1.0068247,0.8892212,0.1428833,0.45007324
q,0.9753578,0.12128119,-0.15349807,-0.102011666
a,1.0102214,0.8862915,0.20861816,0.43762207
q,0.9732466,0.12795524,-0.1553096,-0.11089335
a,0.98307246,0.86499023,0.26348877,0.3857422
