type,w,x,y,z
q,0.683253,-0.21443993,-0.6631579,-0.21772082
a,0.9891133,0.6187134,0.76745605,-0.08093262
q,0.68345183,-0.21441378,-0.66295356,-0.21774498
a,0.98352164,0.61431885,0.76464844,-0.072387695
q,0.6836284,-0.21435578,-0.6627715,-0.21780208
a,1.0014094,0.62976074,0.7763672,-0.05895996
q,0.6838342,-0.21432728,-0.6625598,-0.21782845
a,1.0026442,0.62298584,0.7835083,-0.057434082
q,0.6842208,-0.21426655,-0.6621614,-0.21788523
a,1.0076319,0.6269531,0.7871094,-0.05206299
q,0.6847581,-0.2142201,-0.6615695,-0.21804105
a,1.0048856,0.6268921,0.78326416,-0.057434082
q,0.68536633,-0.21418178,-0.6609059,-0.2181797
a,1.0134684,0.64086914,0.7833252,-0.052978516
q,0.6860644,-0.21411933,-0.6601408,-0.21836318
a,1.022263,0.6488037,0.78881836,-0.042907715
q,0.6870761,-0.2140557,-0.65899634,-0.21870162
a,1.0247834,0.649292,0.79278564,-0.0095825195
q,0.6882499,-0.21405959,-0.6576425,-0.21908215
a,1.0341853,0.65563965,0.7996826,0.013549805
q,0.68985766,-0.21407612,-0.65576786,-0.21962784
a,1.0812315,0.7188721,0.8069458,0.0335083
q,0.6920944,-0.21409103,-0.65315753,-0.22035344
a,1.1028864,0.743103,0.81243896,0.06402588
q,0.695046,-0.21398675,-0.6497602,-0.22120677
a,1.0861819,0.70843506,0.81933594,0.08123779
q,0.69872874,-0.21383226,-0.6454897,-0.22225408
a,1.0927359,0.7079468,0.8241577,0.11682129
q,0.70331186,-0.21353704,-0.6401546,-0.22350918
a,1.1243157,0.7341919,0.8375244,0.15362549
q,0.70896626,-0.21302532,-0.63347584,-0.22515658
a,1.1398925,0.7484741,0.8427124,0.17022705
q,0.71566206,-0.21213625,-0.62556356,-0.22692785
a,1.1542522,0.7842407,0.82354736,0.1975708
q,0.72345114,-0.21073182,-0.616263,-0.22897702
a,1.1210537,0.71655273,0.8253174,0.24932861
q,0.7322589,-0.20887765,-0.60553306,-0.23129357
a,1.1093256,0.6983032,0.8099365,0.29492188
q,0.74143094,-0.20704558,-0.59410596,-0.233346
a,1.0565774,0.62841797,0.80548096,0.26953125
q,0.7513362,-0.20471165,-0.5814559,-0.23557581
a,1.0784242,0.7055054,0.7805176,0.23675537
q,0.762249,-0.20201351,-0.5670781,-0.23788516
a,1.0558115,0.6824341,0.74731445,0.30090332
q,0.77271444,-0.1992527,-0.5530615,-0.23944445
a,0.9843925,0.47930908,0.7612915,0.3996582
q,0.78244966,-0.19656421,-0.5396319,-0.24069154
a,1.0040398,0.5274048,0.73876953,0.42913818
q,0.79287237,-0.19339909,-0.5249514,-0.24161164
a,1.0357991,0.58599854,0.71429443,0.46826172
q,0.80339545,-0.18995136,-0.5095631,-0.24252781
a,0.9938739,0.4946289,0.74609375,0.43182373
q,0.8137199,-0.18644795,-0.49391475,-0.24319807
a,1.006637,0.4802246,0.7145386,0.5216675
q,0.82342935,-0.1834391,-0.478906,-0.2428236
a,0.9824739,0.37542725,0.711853,0.5635376
q,0.8323693,-0.18078645,-0.4647299,-0.24187514
a,0.9852311,0.4136963,0.7140503,0.538208
q,0.8421681,-0.17801343,-0.44850504,-0.24063934
a,1.0016234,0.48962402,0.72094727,0.49371338
q,0.85203373,-0.17551556,-0.43094832,-0.23982552
a,0.99484056,0.44555664,0.7298584,0.50842285
q,0.860736,-0.17333026,-0.41511625,-0.23826182
a,0.9435813,0.2607422,0.7025757,0.57336426
q,0.8686749,-0.17177449,-0.4002341,-0.23602977
a,0.9650009,0.21508789,0.6742554,0.65600586
q,0.8763193,-0.17046534,-0.38531256,-0.23353869
a,0.92069495,0.34692383,0.6558838,0.545105
q,0.8844209,-0.16949466,-0.368404,-0.23097575
a,0.921924,0.29870605,0.68426514,0.5408325
q,0.8910276,-0.16904388,-0.35412696,-0.22822808
a,0.89725757,0.17333984,0.64282227,0.60150146
q,0.8961319,-0.16950008,-0.34334695,-0.22434394
a,0.8538374,0.19189453,0.58325195,0.59332275
q,0.9011087,-0.17041597,-0.3326314,-0.21981326
a,0.8767013,0.20751953,0.5953369,0.6091919
q,0.90571684,-0.1715367,-0.32210475,-0.21564032
a,0.850062,0.21777344,0.5800171,0.58203125
q,0.9096543,-0.1732096,-0.31304622,-0.2110201
a,0.8686831,0.27349854,0.5618286,0.6034546
q,0.9132547,-0.17528439,-0.304365,-0.20640565
a,0.92991984,0.21881104,0.58947754,0.6851196
q,0.91575575,-0.17781352,-0.2986305,-0.20147835
a,0.9546978,0.2286377,0.5272827,0.7623291
q,0.9182667,-0.18067737,-0.29264444,-0.1962169
a,0.9397411,0.2999878,0.52459717,0.7196655
q,0.92063177,-0.1833026,-0.28683093,-0.19122025
a,0.9376188,0.2833252,0.51556396,0.73010254
q,0.9233712,-0.18583904,-0.2791178,-0.1869297
a,0.9984523,0.27270508,0.5479126,0.7888794
q,0.9257528,-0.18819939,-0.27232563,-0.18276072
a,1.0141287,0.3508911,0.45446777,0.8359375
q,0.92756623,-0.19095376,-0.26741847,-0.17788999
a,0.9660951,0.39196777,0.38305664,0.79559326
q,0.92943966,-0.19331786,-0.26186767,-0.17376854
a,1.0100651,0.3522339,0.37390137,0.86968994
q,0.93098956,-0.19556949,-0.2575054,-0.16941658
a,0.9210213,0.22332764,0.38513184,0.8062744
q,0.93261766,-0.19761023,-0.25256488,-0.16548525
a,0.9321212,0.25756836,0.4078369,0.7976074
q,0.93433726,-0.19966958,-0.24703611,-0.16161418
a,0.9306885,0.34088135,0.37646484,0.7799072
q,0.9352654,-0.20199077,-0.24430047,-0.15746614
a,0.8843457,0.33776855,0.2897339,0.7642212
q,0.935892,-0.20432393,-0.24262391,-0.1532695
a,0.91922706,0.24627686,0.3164673,0.82714844
q,0.9363117,-0.20680235,-0.24161495,-0.14891383
a,0.94157046,0.23040771,0.324646,0.8532715
q,0.93640196,-0.20961896,-0.24145164,-0.14461103
a,0.8963754,0.29919434,0.32086182,0.78167725
q,0.936346,-0.21261193,-0.24130069,-0.14080617
a,0.9078609,0.33355713,0.30688477,0.7866211
q,0.936116,-0.21562184,-0.2418534,-0.13675146
a,0.92591697,0.35620117,0.26153564,0.81365967
q,0.9356648,-0.21851686,-0.24324606,-0.1327144
a,0.9154007,0.322937,0.23968506,0.82232666
q,0.93506765,-0.22137007,-0.24505757,-0.12880415
a,0.9686167,0.37695312,0.23266602,0.86138916
q,0.9344535,-0.22411405,-0.24684702,-0.1250447
a,0.96760434,0.38702393,0.24719238,0.8516846
q,0.9338213,-0.2266896,-0.24864952,-0.12150313
a,1.002042,0.3665161,0.2625122,0.89489746
q,0.93338543,-0.22899993,-0.24956974,-0.11859837
a,1.0450239,0.4366455,0.24786377,0.9165039
q,0.93287957,-0.23053478,-0.25103086,-0.11650308
a,0.99413466,0.41107178,0.18328857,0.8864136
q,0.9321737,-0.2319081,-0.25333142,-0.11442883
a,0.9144147,0.38482666,0.21063232,0.8023071
q,0.931552,-0.23284945,-0.2555016,-0.112742774
a,1.1550435,0.5204468,0.23596191,1.0037842
q,0.93095946,-0.22906697,-0.2628642,-0.108375296
a,2.3969123,1.5166626,0.6499634,1.7385254
q,0.93039316,-0.227629,-0.262357,-0.11714216
a,0.94805384,-0.49658203,0.20343018,0.7815552
q,0.9289446,-0.22917904,-0.26992095,-0.108081415
a,0.77177906,0.4091797,0.14788818,0.6374512
q,0.92859167,-0.22798552,-0.2704205,-0.11230648
a,1.6479954,1.0516357,0.47875977,1.1750488
q,0.9285056,-0.22690156,-0.27108938,-0.113594376
a,0.8461355,0.24932861,0.38885498,0.70892334
q,0.9269283,-0.2274142,-0.27815187,-0.108251415
a,0.7927957,0.32635498,0.22198486,0.68756104
q,0.9267906,-0.22725108,-0.27828506,-0.10942367
a,1.3841099,0.80322266,0.505249,1.0076294
q,0.92641973,-0.22742814,-0.280262,-0.10712644
a,0.86241865,0.30706787,0.2987671,0.7484741
q,0.9258012,-0.22804317,-0.28292406,-0.104126684
a,0.92827857,0.42694092,0.3461914,0.7480469
q,0.9248415,-0.22829036,-0.28710815,-0.10060125
a,1.0775476,0.5482788,0.35943604,0.8551636
q,0.9241938,-0.22822924,-0.29018185,-0.09783524
a,1.0319023,0.5548706,0.40637207,0.7692871
q,0.9238491,-0.22823521,-0.29214007,-0.09521342
a,0.9516663,0.49609375,0.3649292,0.7255249
q,0.92340785,-0.22838485,-0.29450876,-0.09177616
a,0.96447146,0.5109863,0.32452393,0.7508545
q,0.9226725,-0.22845525,-0.29778728,-0.08835356
a,0.9857524,0.54711914,0.36206055,0.7357178
q,0.9220152,-0.22829132,-0.30094382,-0.08487568
a,1.007918,0.6002197,0.36920166,0.7206421
q,0.9210854,-0.22803864,-0.30501482,-0.081030704
a,0.93978083,0.55267334,0.32904053,0.68518066
q,0.9201413,-0.22765926,-0.30915135,-0.0770511
a,1.027304,0.63934326,0.33483887,0.7310791
q,0.91920686,-0.22758357,-0.3130141,-0.07270954
a,1.0311146,0.6224365,0.35113525,0.74328613
q,0.9178119,-0.22787048,-0.31793085,-0.0679449
a,0.94825476,0.569397,0.3095703,0.6921997
q,0.91563576,-0.22830704,-0.32501835,-0.06204929
a,0.8705646,0.5186157,0.28118896,0.64019775
