type,w,x,y,z
l,pick-1660
l,pick-4155
l,putback-4550
l,pick-5580
l,pick-12940
l,putback-14725
l,pick-15190
l,putback-17080
l,pick-17405
l,pick-22740
l,pick-22835
l,pick-27705
l,putback-28215
l,pick-28785
l,pick-34210
l,pick-36605
