type,w,x,y,z
l,pick-320
l,pick-2500
l,putback-2655
l,putback-2880
l,pick-3815
l,putback-4030
l,pick-4915
l,pick-5165
l,putback-5820
l,pick-6450
l,putback-6635
l,pick-7040
l,pick-7540
l,putback-7690
l,pick-8095
l,putback-8415
l,pick-8645
l,putback-8755
l,pick-9365
l,putback-9550
l,pick-9885
l,putback-10195
l,pick-11305
l,putback-11495
l,pick-12580
l,putback-12900
l,pick-13285
l,putback-13425
l,pick-14095
l,putback-14350
l,pick-14420
l,pick-15030
l,pick-15835
l,putback-15930
l,pick-16645
l,putback-16930
l,pick-17890
l,putback-18090
l,pick-18350
l,putback-18745
l,pick-19410
l,putback-19575
l,pick-20190
l,putback-20525
l,pick-20985
l,putback-21175
l,pick-21345
l,putback-21515
l,pick-22835
l,pick-23825
l,putback-24240
l,pick-24905
l,putback-25150
l,pick-25720
l,putback-26000
l,pick-26190
l,pick-26490
l,pick-26730
l,pick-26935
l,pick-27215
l,pick-27685
l,pick-28160
l,putback-28865
