type,w,x,y,z
l,pick-615
l,pick-1505
l,pick-2900
l,putback-3360
l,pick-4110
l,pick-4755
l,putback-6070
l,pick-7175
l,putback-7855
l,pick-7965
l,putback-8805
l,pick-9695
l,putback-10285
l,pick-10705
l,putback-11295
l,pick-12145
l,pick-13835
l,pick-14915
l,putback-15725
l,pick-17200
l,pick-18610
l,putback-19470
l,pick-20580
l,pick-23050
l,putback-23375
l,pick-23560
l,putback-24125
l,pick-24260
l,pick-25520
l,pick-25650
l,putback-26070
