type,w,x,y,z
l,pick-1640
l,putback-1960
l,pick-2465
l,pick-4095
l,putback-4330
l,pick-4895
l,putback-5625
l,pick-7110
l,putback-7495
l,pick-9180
l,pick-10095
l,putback-10290
l,pick-10490
l,putback-11990
l,pick-13440
l,putback-13555
l,pick-14340
l,pick-15055
l,pick-16260
l,pick-17020
l,pick-17540
l,pick-19010
l,pick-21220
l,pick-21470
l,pick-22115
l,pick-22310
l,putback-23730
l,pick-25815
l,pick-26200
l,putback-26390
