type,w,x,y,z
l,pick-490
l,putback-930
l,pick-3730
l,putback-3925
l,pick-4745
l,pick-6660
l,pick-6955
l,pick-7635
l,putback-7850
l,pick-9700
l,pick-10050
l,pick-11590
l,pick-12040
l,pick-13070
l,putback-13155
l,pick-13345
l,putback-13710
l,pick-13990
l,putback-14400
l,pick-14445
l,pick-16655
l,putback-16845
l,pick-17095
l,pick-17520
l,putback-17775
l,pick-17975
l,pick-19940
l,pick-20035
l,pick-20750
l,putback-20960
l,pick-21950
l,putback-22310
l,pick-22445
