type,w,x,y,z
l,other-1215
l,pick-2230
l,pick-2595
l,other-3100
l,other-4065
l,other-5620
l,other-5735
l,other-5950
l,other-6505
l,other-6565
l,other-6660
l,other-7060
l,other-7185
l,other-9560
l,pick-10200
l,pick-10360
l,pick-10465
l,putback-10595
l,pick-10660
l,pick-10845
l,pick-10945
l,putback-11110
l,putback-11190
l,pick-11640
l,pick-11735
l,pick-12365
l,pick-13250
l,putback-13945
l,putback-14015
l,other-14515
l,other-14750
l,other-14800
l,pick-20160
l,pick-20450
l,pick-21690
l,putback-23935
l,pick-24065
l,putback-24260
l,pick-24880
l,putback-26195
l,other-30700
l,other-30770
l,other-30900
l,other-36475
l,other-36855
l,other-37215
l,pick-37390
l,pick-37970
l,putback-40965
l,pick-41075
l,pick-42475
l,other-46570
l,other-47230
l,other-47710
l,pick-49760
l,putback-50340
l,other-50455
l,pick-50570
l,putback-51335
l,putback-53610
l,pick-53935
l,putback-56125
l,putback-56185
l,other-58740
l,other-59000
l,pick-59180
l,putback-59775
l,putback-59830
l,other-59970